Task_4/I2C_master.vcd
$date
	Thur Mar 15 00:09:56 2026
$end
$version
	Icarus Verilog
$end
$timescale
	1ps
$end
$scope module tb_I2C_master_standard $end
$var wire 1 ! sda $end
$var wire 1 " scl $end
$var wire 32 # data_out [31:0] $end
$var reg 8 $ addr_offset [7:0] $end
$var reg 1 % clk $end
$var reg 32 & data_in [31:0] $end
$var reg 1 ' r_en $end
$var reg 1 ( rst_n $end
$var reg 1 ) sda_slave_drive $end
$var reg 1 * wr_en $end
$scope module dut $end
$var wire 8 + addr_offset [7:0] $end
$var wire 1 % clk $end
$var wire 32 , data_in [31:0] $end
$var wire 1 ' r_en $end
$var wire 1 ( rst_n $end
$var wire 1 ! sda $end
$var wire 1 * wr_en $end
$var reg 5 - bit_index [4:0] $end
$var reg 8 . clk_count [7:0] $end
$var reg 8 / clk_div [7:0] $end
$var reg 32 0 data_out [31:0] $end
$var reg 8 1 data_received [7:0] $end
$var reg 8 2 data_to_send [7:0] $end
$var reg 1 3 mode $end
$var reg 1 " scl $end
$var reg 1 4 sda_drive_low $end
$var reg 7 5 slave_addr [6:0] $end
$var reg 1 6 start_enable $end
$var reg 2 7 status [1:0] $end
$upscope $end
$scope task reg_read $end
$var reg 8 8 addr [7:0] $end
$upscope $end
$scope task reg_write $end
$var reg 8 9 addr [7:0] $end
$var reg 32 : data [31:0] $end
$upscope $end
$upscope $end
$enddefinitions $end
$comment Show the parameter values. $end
$dumpall
$end
#0
$dumpvars
bx :
bx 9
bx 8
b0 7
06
b0 5
04
03
b0 2
b0 1
b0 0
b1 /
b0 .
b0 -
b0 ,
b0 +
0*
0)
0(
0'
b0 &
0%
b0 $
b0 #
1"
z!
$end
#10000
1%
#20000
0%
#30000
1%
#40000
0%
#50000
1%
#60000
0%
#70000
1%
#80000
0%
#90000
1%
#100000
0%
b10 :
b100 9
1*
1(
#110000
b10 &
b10 ,
b100 $
b100 +
b1010101 :
b1000 9
1%
#120000
0%
#130000
b10 /
b1010101 &
b1010101 ,
b1000 $
b1000 +
b10100110 :
b1100 9
1%
#140000
0%
#150000
b1010101 5
b10100110 &
b10100110 ,
b1100 $
b1100 +
b0 :
b11000 9
1%
#160000
0%
#170000
b10100110 2
b0 &
b0 ,
b11000 $
b11000 +
b1 :
b0 9
1%
#180000
0%
#190000
b1 &
b1 ,
b0 $
b0 +
1%
#200000
0%
#210000
16
1%
#220000
0%
#230000
0"
1%
0*
#240000
0%
#250000
b1 -
b1 7
1"
1%
#260000
0%
#270000
0"
1%
#280000
0%
#290000
0!
b10 -
14
1"
1%
#300000
0%
#310000
0"
1%
#320000
0%
#330000
z!
b11 -
04
1"
1%
#340000
0%
#350000
0"
1%
#360000
0%
#370000
0!
b100 -
14
1"
1%
#380000
0%
#390000
0"
1%
#400000
0%
#410000
z!
b101 -
04
1"
1%
#420000
0%
#430000
0"
1%
#440000
0%
#450000
0!
b110 -
14
1"
1%
#460000
0%
#470000
0"
1%
#480000
0%
#490000
z!
b111 -
04
1"
1%
#500000
0%
#510000
0"
1%
#520000
0%
#530000
0!
b1000 -
14
1"
1%
#540000
0%
#550000
0"
1%
#560000
0%
#570000
b1001 -
04
1)
1"
1%
#580000
0%
#590000
0"
1%
#600000
0%
#610000
z!
b1010 -
b10 7
0)
1"
1%
#620000
0%
#630000
0"
1%
#640000
0%
#650000
b1011 -
1"
1%
#660000
0%
#670000
0"
1%
#680000
0%
#690000
0!
b1100 -
14
1"
1%
#700000
0%
#710000
0"
1%
#720000
0%
#730000
z!
b1101 -
04
1"
1%
#740000
0%
#750000
0"
1%
#760000
0%
#770000
0!
b1110 -
14
1"
1%
#780000
0%
#790000
0"
1%
#800000
0%
#810000
b1111 -
1"
1%
#820000
0%
#830000
0"
1%
#840000
0%
#850000
z!
b10000 -
04
1"
1%
#860000
0%
#870000
0"
1%
#880000
0%
#890000
b10001 -
1"
1%
#900000
0%
#910000
0"
1%
#920000
0%
#930000
0!
b10010 -
14
1"
1%
#940000
0%
#950000
0"
1%
#960000
0%
#970000
z!
06
b0 7
b0 -
04
1"
1%
